Local Number,OPIC ID
,ANNE0000008036391701
,ANYM3000000082112701
,ARWA0040002074354901
,ARWA0040002074354902
,BKQFE88291088422601
,BKQFE88291088422602
,BMOS0001000046349201
,CBBO893I885011118501
,EHZUHXD7707736138201
,ENZJ361L833424621501
,ERYX3VMR28203357801
,EVSH48SJ311115088301
,FEQEM995931925497001
,FEQJ3QHM903150348101
,FFQQM555597591946601
,FUKDY550617568001001
,FZUJSX88880317590401
,GNUJEJ66676677248601
,HERI070L300256586301
,HJMUGWC4264451523501
,HLCV89FV955555411101
,HQJHFK33633494983101
,HUDD395O349571273701
,IBXI6TKP866396792401
,IEDH314B305395705801
,IFDFCSX8089015335601
,IFEH4BRW977158774001
,IFXMI77286665705201
,IPPB3340334566020801
,IVII7PGL564444291001
,JCOO6681766681573401
,JDIFMDI7997875928301
,KENZH114116133480501
,KHQWFK55555512501401
,KHQWFK55555512501402
,KOWI050000001693801
,KPIOMDI1311126018301
,KSCZ45LC343338242201
,KTGDY11211615794101
,LEYR689L669666746101
,LMEBE669666794328001
,LOJMI994190271236401
,LOVELCH6667250008001
,LSTXWNS1911451621501
,LYRD996D099962063801
,MIBODI11311132903601
,MWER32EU142211425901
,MWKSUZ00100296388701
,NBVBU559756878230801
,NMCQG004200290254001
,NUUN4ULQ902972750901
,NZPU74RI280022486601
,OLDPK337433526943901
,ONIR8835788053477501
,OQLP2202031123968301
,OVJX2VMR808887131001
,OWJF88628887752801
,PJBM9960999745222401
,RZCH6629665620214901
,SNKE2242231118418701
,SNOG83KB01005645301
,SOYS2277252260640601
,SQMF6DTY637586708201
,SSHT2QHM191913045801
,TAVR046L900312867101
,TLGSPGL8029770508201
,TSHJ7781778741733601
,UOZWQV66638617124201
,VBWO609Z683825432101
,VSFSUZ44764461553901
,WUMN25QH019990161901
,WXBI462I596455251401
,XXQJ9XOT44066606501
,YEGXWNS1111211010301
,YNCO6617166672293501
,YYYY7KBG089925370001
,ZQXM800K088320692401